An Introduction to R: Data Cleaning, Wrangling, Visualizing, and Everything Else
…
---

## Solutions

```r
filtdf <- co16_rem %>% filter(DFC == "N", AggLevel == "D", 
                              Subgroup=="All", 
                              Subgrouptype=="All")

filtdf
```

```
## # A tibble: 493 x 18
##    CDS   Name  AggLevel DFC   Subgroup Subgrouptype NumCohort NumGraduates
##    <chr> <chr> <chr>    <chr> <chr>    <chr>            <dbl>        <dbl>
##  1 0110~ Alam~ D        N     All      All                312          109
##  2 0161~ Alam~ D        N     All      All                727          632
##  3 0161~ Cast~ D        N     All      All                779          749
##  4 0161~ Pied~ D        N     All      All                206          205
##  5 0410~ Butt~ D        N     All      All                 76           37
##  6 0461~ Chic~ D        N     All      All               1093          979
##  7 0461~ Durh~ D        N     All      All                 67           65
##  8 0475~ Grid~ D        N     All      All                182          163
##  9 0861~ Del ~ D        N     All      All                216          197
## 10 1062~ Fres~ D        N     All      All               4488         3839
## # ... with 483 more rows, and 10 more variables: `Cohort Graduation
## #   Rate` <dbl>, NumDropouts <dbl>, `Cohort Dropout Rate` <dbl>,
## #   NumSpecialEducation <dbl>, `Special Ed Completers Rate` <dbl>,
## #   NumStillEnrolled <dbl>, `Still Enrolled Rate` <dbl>, NumGED <dbl>,
## #   `GED Rate` <dbl>, Year <dbl>
```
…
